{"_id":{"$oid":"5e8dc96ab12ae11e8dad9f02"},"productName":"Iphone 6","price":{"$numberInt":"390"},"categoryType":{"$oid":"5e8d98dcc225d205f513a873"},"__v":{"$numberInt":"0"}}
{"_id":{"$oid":"5e8dc981b12ae11e8dad9f03"},"productName":"Galaxy S","price":{"$numberInt":"500"},"categoryType":{"$oid":"5e8d98dcc225d205f513a873"},"__v":{"$numberInt":"0"}}
{"_id":{"$oid":"5e8dd0eac5e5471f3d1e9bd1"},"productName":"GoPro HERO7","price":{"$numberDouble":"219.9"},"categoryType":{"$oid":"5e8d98cbc225d205f513a872"},"__v":{"$numberInt":"0"}}
{"_id":{"$oid":"5e8e00a8fe701512a98068db"},"productName":"GoPro MAX","price":{"$numberDouble":"505.7"},"categoryType":{"$oid":"5e8d98cbc225d205f513a872"},"__v":{"$numberInt":"0"}}
{"_id":{"$oid":"5e8e0cdd62a25c27ad1d6495"},"productName":"Bose","price":{"$numberInt":"150"},"categoryType":{"$oid":"5e8daed74ed341065dae5c30"},"__v":{"$numberInt":"0"}}
{"_id":{"$oid":"5e8e0dfe62a25c27ad1d6497"},"productName":"Nokia 3310","price":{"$numberInt":"50"},"categoryType":{"$oid":"5e8d98dcc225d205f513a873"},"__v":{"$numberInt":"0"}}
{"_id":{"$oid":"5e8e0e6562a25c27ad1d649a"},"productName":"MacBook Pro","price":{"$numberInt":"2550"},"categoryType":{"$oid":"5e8d98bcc225d205f513a871"},"__v":{"$numberInt":"0"}}
{"_id":{"$oid":"5e8e0eb962a25c27ad1d649c"},"productName":"Azuz Aspire","price":{"$numberInt":"900"},"categoryType":{"$oid":"5e8d98bcc225d205f513a871"},"__v":{"$numberInt":"0"}}
{"_id":{"$oid":"5e8e2903388d10207945741b"},"productName":"JVC GC-PX100","price":{"$numberDouble":"790.9"},"categoryType":{"$oid":"5e8d98cbc225d205f513a872"},"__v":{"$numberInt":"0"}}
{"_id":{"$oid":"5e8e292b388d10207945741c"},"productName":"D5200 18-55 VR","price":{"$numberDouble":"720.9"},"categoryType":{"$oid":"5e8d98cbc225d205f513a872"},"__v":{"$numberInt":"0"}}
{"_id":{"$oid":"5e8e29b5388d10207945741d"},"productName":"Phantom","price":{"$numberInt":"2300"},"categoryType":{"$oid":"5e8daed74ed341065dae5c30"},"__v":{"$numberInt":"0"}}
{"_id":{"$oid":"5e8e29c4388d10207945741e"},"productName":"JBL","price":{"$numberInt":"890"},"categoryType":{"$oid":"5e8daed74ed341065dae5c30"},"__v":{"$numberInt":"0"}}
{"_id":{"$oid":"5e8e2a14388d10207945741f"},"productName":"Amazon Echo Dot 2","price":{"$numberInt":"40"},"categoryType":{"$oid":"5e8daed74ed341065dae5c30"},"__v":{"$numberInt":"0"}}
{"_id":{"$oid":"5e8e2acb388d102079457420"},"productName":"Lenovo IdeaPad","price":{"$numberInt":"250"},"categoryType":{"$oid":"5e8d98bcc225d205f513a871"},"__v":{"$numberInt":"0"}}
{"_id":{"$oid":"5e8e2ae6388d102079457421"},"productName":"Dell G5 5590","price":{"$numberInt":"900"},"categoryType":{"$oid":"5e8d98bcc225d205f513a871"},"__v":{"$numberInt":"0"}}
{"_id":{"$oid":"5e8e2b53388d102079457422"},"productName":"Escobar Fold 1","price":{"$numberInt":"350"},"categoryType":{"$oid":"5e8d98dcc225d205f513a873"},"__v":{"$numberInt":"0"}}
{"_id":{"$oid":"5e8e507071e7b42c454a5620"},"productName":"Nokia 3210","price":{"$numberInt":"10"},"categoryType":{"$oid":"5e8d98dcc225d205f513a873"},"__v":{"$numberInt":"0"}}
